C:\Users\Dilian\Desktop\Proyectos webaPP\PruebaMoovin\src\main\java\rest\RestApplication.java
C:\Users\Dilian\Desktop\Proyectos webaPP\PruebaMoovin\src\main\java\rest\Response.java
C:\Users\Dilian\Desktop\Proyectos webaPP\PruebaMoovin\src\main\java\rest\PolygonTest.java
